<svg width="72" height="100" viewBox="0 0 72 100" fill="none" xmlns="http://www.w3.org/2000/svg">
<path d="M70.1044 38.1145C65.4047 36.495 60.0971 39.9518 56.9942 36.5767C53.7054 33.002 50.3893 32.3805 46.0661 32.5166C42.7455 32.6119 39.3432 31.9178 40.4319 27.0639C40.7812 25.458 39.6199 24.519 38.9757 23.3395C34.952 15.9634 36.7892 9.88917 44.3786 5.11236C45.7213 4.27766 48.7698 4.26405 47.2002 1.52862C45.7531 -0.970929 43.3307 0.0225382 41.8609 1.51954C38.3543 5.11236 34.2352 6.77267 29.3087 7.53025C25.353 8.13812 20.8574 9.53079 20.2768 14.4437C19.678 19.5698 15.5816 21.4524 12.4016 24.0155C9.78412 26.143 7.24375 31.3644 8.60466 34.304C11.4853 40.5415 9.67071 47.2054 10.0699 53.6426C10.2604 56.5776 6.41813 58.4511 3.82785 60.4517C2.5123 61.4724 -1.20753 64.3666 1.63678 66.8253C5.01185 69.7376 9.30326 73.3577 13.259 73.4439C23.2345 73.6707 29.0728 79.4954 34.1899 86.3907C36.1995 89.0944 38.0049 89.7748 40.8402 89.5344C43.0993 89.353 45.3766 88.9764 47.6175 89.1579C51.4417 89.4573 54.7714 90.3736 50.92 95.1096C49.1599 97.2871 50.3983 98.3486 52.4715 99.0336C53.3198 99.3239 54.472 101.125 54.9075 98.9202C56.1868 92.415 60.8184 84.1724 56.6994 79.6905C51.5007 74.0291 61.8663 70.1006 56.1459 66.1085C56.0144 66.0042 57.9832 65.3237 59.0946 65.2194C62.4379 64.9245 65.6814 65.1015 69.1064 63.6226C71.1704 62.7335 71.86 63.2642 71.1614 60.7647C69.0656 53.3749 65.0645 46.0577 70.1044 38.1145Z" fill="#E4E4E4"/>
</svg>
