<svg width="110" height="86" viewBox="0 0 110 86" fill="none" xmlns="http://www.w3.org/2000/svg">
<path d="M20.8236 41.0823C23.5272 45.3153 25.9562 48.4024 25.2412 53.3503C24.5499 58.142 24.834 63.1751 22.4619 67.5785C20.781 70.7035 23.5509 70.8361 24.9571 72.0435C30.5016 76.8352 37.6276 74.9034 43.9297 76.4138C48.6645 77.5501 55.6248 82.1335 56.941 71.7499C57.1778 69.8844 60.0708 69.3541 62.2914 69.2784C65.8426 69.1316 69.1806 69.927 72.4855 71.1202C77.173 72.8011 85.0755 69.4488 86.9789 65.1543C87.7791 63.3409 86.9221 63.071 85.4496 62.3323C81.5291 60.3863 81.7659 57.2897 82.727 53.3361C83.5509 49.8939 84.2043 44.8749 79.9003 43.2935C75.9515 41.8399 78.4609 40.4289 79.3511 39.5766C83.6077 35.4242 86.1077 30.5047 88.6693 25.088C91.2734 19.5956 88.6172 19.4914 85.388 18.5492C73.4467 15.0549 62.4666 9.67608 52.4713 2.25183C48.6645 -0.58434 45.3927 0.320015 45.1134 5.03119C44.834 9.62873 43.0206 11.2244 38.8208 11.2575C37.1588 11.2812 35.5206 11.7783 34.7677 13.4876C32.3435 19.0132 28.9249 16.5227 25.942 14.373C24.3795 13.2367 23.281 11.66 21.2213 13.0662C18.9628 14.6003 20.3501 16.1391 21.2166 17.8011C23.7308 22.6022 22.5708 23.4071 17.102 23.0994C15.9704 23.0284 15.0376 22.6069 14.1711 22.124C12.7175 21.3191 11.4344 20.3958 9.67304 20.874C8.1058 21.2575 6.55751 21.7641 4.97133 21.9914C2.83592 22.2992 -0.0618093 21.2433 -0.000256248 25.0217C0.0518271 28.2604 0.984592 30.6041 4.72986 31.5369C10.923 33.0804 16.5338 34.3588 20.8236 41.0823Z" fill="#E4E4E4"/>
<path d="M103.693 76.267C102.074 78.5492 102.817 81.0824 104.124 83.3646C104.835 84.6146 105.853 85.8409 107.372 85.1733C109.839 84.0511 109.839 81.4943 109.868 79.2689C109.891 77.0862 110.611 74.7045 108.485 71.9583C106.686 73.5255 104.849 74.6477 103.693 76.267Z" fill="#E4E4E4"/>
</svg>
